[gd_scene load_steps=3 format=2]

[ext_resource path="res://res/art/icon.png" type="Texture" id=1]

[sub_resource type="CapsuleShape2D" id=1]
radius = 15.5295
height = 2.19248

[node name="obstacle" type="StaticBody2D" groups=[
"obstacles",
]]
position = Vector2( 0, -24 )
__meta__ = {
"_edit_group_": true
}

[node name="Sprite" type="Sprite" parent="."]
modulate = Color( 0.0862745, 0.0627451, 0.0627451, 1 )
texture = ExtResource( 1 )

[node name="collision_shape" type="CollisionShape2D" parent="."]
position = Vector2( 1, 14 )
rotation = 1.5708
shape = SubResource( 1 )
