[gd_scene load_steps=3 format=2]

[ext_resource path="res://scenes/other/lights.gd" type="Script" id=1]

[sub_resource type="Animation" id=1]
length = 4.0
loop = true
step = 1.0
tracks/0/type = "value"
tracks/0/path = NodePath(".:modulate")
tracks/0/interp = 1
tracks/0/loop_wrap = true
tracks/0/imported = false
tracks/0/enabled = true
tracks/0/keys = {
"times": PoolRealArray( 0, 1, 2, 3, 4 ),
"transitions": PoolRealArray( 1, 1, 1, 1, 1 ),
"update": 1,
"values": [ Color( 1, 0, 0, 0.0588235 ), Color( 0, 1, 0, 0.0588235 ), Color( 0, 0, 1, 0.0588235 ), Color( 1, 1, 1, 0.0588235 ), Color( 1, 0, 0, 0.0588235 ) ]
}

[node name="ColorRect" type="ColorRect"]
modulate = Color( 1, 0, 0, 0.00784314 )
margin_left = -27.0
margin_top = -18.0
margin_right = 1088.0
margin_bottom = 624.0
script = ExtResource( 1 )
__meta__ = {
"_edit_use_anchors_": false
}

[node name="AnimationPlayer" type="AnimationPlayer" parent="."]
anims/change = SubResource( 1 )
